Complete Example
…
NOTE: Log Print Time:  2021-11-16 08:41:09
NOTE: Elapsed Time in seconds: 0.0119409561157227

datastep: columns increased from 4 to 8

NOTE: Log Print Time:  2021-11-16 08:41:09
NOTE: Elapsed Time in seconds: 0.0947761535644531

ungroup: no grouping variables

NOTE: Log Print Time:  2021-11-16 08:41:09
NOTE: Elapsed Time in seconds: 0.0029609203338623

# A tibble: 87 x 8
   USUBJID    BRTHDTC      AGE AGEG      AGEM AGEB    SEQ AGEMC
   <chr>      <date>     <dbl> <chr>    <dbl> <chr> <dbl> <chr>
 1 ABC-04-128 1987-05-24    19 18 to 29  49.4 Start     1 B    
 2 ABC-07-011 1985-01-18    21 18 to 29  49.4 -         2 B    
 3 ABC-09-139 1985-11-13    21 18 to 29  49.4 -         3 B    
 4 ABC-09-018 1984-08-29    22 18 to 29  49.4 -         4 B    
 5 ABC-04-074 1983-03-28    23 18 to 29  49.4 -         5 B    
 6 ABC-01-053 1980-04-07    26 18 to 29  49.4 -         6 B    
 7 ABC-06-070 1980-02-01    26 18 to 29  49.4 End       7 B    
 8 ABC-02-112 1976-11-01    30 30 to 44  49.4 Start     1 B    
 9 ABC-01-056 1975-05-02    31 30 to 44  49.4 -         2 B    
10 ABC-03-089 1975-10-02    31 30 to 44  49.4 -         3 B    
# ... with 77 more rows
…
